…
 $ Sepal.Length: num  5.1 4.9 4.7 4.6 5 5.4 4.6 5 4.4 4.9 ...
 $ Sepal.Width : num  3.5 3 3.2 3.1 3.6 3.9 3.4 3.4 2.9 3.1 ...
 $ Petal.Length: num  1.4 1.4 1.3 1.5 1.4 1.7 1.4 1.5 1.4 1.5 ...
 $ Petal.Width : num  0.2 0.2 0.2 0.2 0.2 0.4 0.3 0.2 0.2 0.1 ...
 $ Species     : Factor w/ 3 levels "setosa","versicolor",..: 1 1 1 1 1 1 1 1 1 1 ...
> head(iris)
  Sepal.Length Sepal.Width Petal.Length Petal.Width Species
1          5.1         3.5          1.4         0.2  setosa
2          4.9         3.0          1.4         0.2  setosa
3          4.7         3.2          1.3         0.2  setosa
4          4.6         3.1          1.5         0.2  setosa
5          5.0         3.6          1.4         0.2  setosa
6          5.4         3.9          1.7         0.4  setosa
> as_tibble(iris)
# A tibble: 150 x 5
   Sepal.Length Sepal.Width Petal.Length Petal.Width Species
          <dbl>       <dbl>        <dbl>       <dbl> <fct>  
 1          5.1         3.5          1.4         0.2 setosa 
 2          4.9         3            1.4         0.2 setosa 
 3          4.7         3.2          1.3         0.2 setosa 
 4          4.6         3.1          1.5         0.2 setosa 
 5          5           3.6          1.4         0.2 setosa 
 6          5.4         3.9          1.7         0.4 setosa 
 7          4.6         3.4          1.4         0.3 setosa 
 8          5           3.4          1.5         0.2 setosa 
 9          4.4         2.9          1.4         0.2 setosa 
10          4.9         3.1          1.5         0.1 setosa 
# ... with 140 more rows
…
 $ HBP     : int  NA NA NA NA NA NA NA NA NA NA ...
 $ SH      : int  NA NA NA NA NA NA NA NA NA NA ...
 $ SF      : int  NA NA NA NA NA NA NA NA NA NA ...
 $ GIDP    : int  0 0 1 0 0 0 0 1 0 0 ...
> head(Batting)
   playerID yearID stint teamID lgID  G  AB  R  H X2B X3B HR RBI SB CS BB SO IBB HBP SH SF GIDP
1 abercda01   1871     1    TRO   NA  1   4  0  0   0   0  0   0  0  0  0  0  NA  NA NA NA    0
2  addybo01   1871     1    RC1   NA 25 118 30 32   6   0  0  13  8  1  4  0  NA  NA NA NA    0
3 allisar01   1871     1    CL1   NA 29 137 28 40   4   5  0  19  3  1  2  5  NA  NA NA NA    1
4 allisdo01   1871     1    WS3   NA 27 133 28 44  10   2  2  27  1  1  0  2  NA  NA NA NA    0
5 ansonca01   1871     1    RC1   NA 25 120 29 39  11   3  0  16  6  2  2  1  NA  NA NA NA    0
6 armstbo01   1871     1    FW1   NA 12  49  9 11   2   1  0   5  0  1  0  1  NA  NA NA NA    0
> Batting.tbl <- as_tibble(Batting)
> Batting.tbl
# A tibble: 108,789 x 22
   playerID  yearID stint teamID lgID      G    AB     R     H   X2B   X3B    HR   RBI    SB    CS    BB    SO
   <chr>      <int> <int> <fct>  <fct> <int> <int> <int> <int> <int> <int> <int> <int> <int> <int> <int> <int>
 1 abercda01   1871     1 TRO    NA        1     4     0     0     0     0     0     0     0     0     0     0
 2 addybo01    1871     1 RC1    NA       25   118    30    32     6     0     0    13     8     1     4     0
 3 allisar01   1871     1 CL1    NA       29   137    28    40     4     5     0    19     3     1     2     5
 4 allisdo01   1871     1 WS3    NA       27   133    28    44    10     2     2    27     1     1     0     2
 5 ansonca01   1871     1 RC1    NA       25   120    29    39    11     3     0    16     6     2     2     1
 6 armstbo01   1871     1 FW1    NA       12    49     9    11     2     1     0     5     0     1     0     1
 7 barkeal01   1871     1 RC1    NA        1     4     0     1     0     0     0     2     0     0     1     0
 8 barnero01   1871     1 BS1    NA       31   157    66    63    10     9     0    34    11     6    13     1
 9 barrebi01   1871     1 FW1    NA        1     5     1     1     1     0     0     1     0     0     0     0
10 barrofr01   1871     1 BS1    NA       18    86    13    13     2     1     0    11     1     0     0     0
# ... with 108,779 more rows, and 5 more variables: IBB <int>, HBP <int>, SH <int>, SF <int>, GIDP <int>
> #출력되는 개수 조절하려면
> print(Batting.tbl, n=20)
# A tibble: 108,789 x 22
   playerID  yearID stint teamID lgID      G    AB     R     H   X2B   X3B    HR   RBI    SB    CS    BB    SO
   <chr>      <int> <int> <fct>  <fct> <int> <int> <int> <int> <int> <int> <int> <int> <int> <int> <int> <int>
 1 abercda01   1871     1 TRO    NA        1     4     0     0     0     0     0     0     0     0     0     0
 2 addybo01    1871     1 RC1    NA       25   118    30    32     6     0     0    13     8     1     4     0
 3 allisar01   1871     1 CL1    NA       29   137    28    40     4     5     0    19     3     1     2     5
 4 allisdo01   1871     1 WS3    NA       27   133    28    44    10     2     2    27     1     1     0     2
 5 ansonca01   1871     1 RC1    NA       25   120    29    39    11     3     0    16     6     2     2     1
 6 armstbo01   1871     1 FW1    NA       12    49     9    11     2     1     0     5     0     1     0     1
 7 barkeal01   1871     1 RC1    NA        1     4     0     1     0     0     0     2     0     0     1     0
 8 barnero01   1871     1 BS1    NA       31   157    66    63    10     9     0    34    11     6    13     1
 9 barrebi01   1871     1 FW1    NA        1     5     1     1     1     0     0     1     0     0     0     0
10 barrofr01   1871     1 BS1    NA       18    86    13    13     2     1     0    11     1     0     0     0
11 bassjo01    1871     1 CL1    NA       22    89    18    27     1    10     3    18     0     1     3     4
12 battijo01   1871     1 CL1    NA        1     3     0     0     0     0     0     0     0     0     1     0
13 bealsto01   1871     1 WS3    NA       10    36     6     7     0     0     0     1     2     0     2     0
14 beaveed01   1871     1 TRO    NA        3    15     7     6     0     0     0     5     2     0     0     0
15 bechtge01   1871     1 PH1    NA       20    94    24    33     9     1     1    21     4     0     2     2
16 bellast01   1871     1 TRO    NA       29   128    26    32     3     3     0    23     4     4     9     2
17 berkena01   1871     1 PH1    NA        1     4     0     0     0     0     0     0     0     0     0     3
18 berryto01   1871     1 PH1    NA        1     4     0     1     0     0     0     0     0     0     0     0
19 berthha01   1871     1 WS3    NA       17    73    17    17     1     1     0     8     3     1     4     2
20 biermch01   1871     1 FW1    NA        1     2     0     0     0     0     0     0     0     0     1     0
# ... with 108,769 more rows, and 5 more variables: IBB <int>, HBP <int>, SH <int>, SF <int>, GIDP <int>
> print(Batting.tbl, n=3, width=Inf)
# A tibble: 108,789 x 22
  playerID  yearID stint teamID lgID      G    AB     R     H   X2B   X3B    HR   RBI    SB    CS    BB    SO
  <chr>      <int> <int> <fct>  <fct> <int> <int> <int> <int> <int> <int> <int> <int> <int> <int> <int> <int>
1 abercda01   1871     1 TRO    NA        1     4     0     0     0     0     0     0     0     0     0     0
2 addybo01    1871     1 RC1    NA       25   118    30    32     6     0     0    13     8     1     4     0
3 allisar01   1871     1 CL1    NA       29   137    28    40     4     5     0    19     3     1     2     5
    IBB   HBP    SH    SF  GIDP
  <int> <int> <int> <int> <int>
1    NA    NA    NA    NA     0
2    NA    NA    NA    NA     0
3    NA    NA    NA    NA     1
# ... with 108,786 more rows
…
